Disk /dev/sda: 465.7 GiB, 500074283008 bytes, 976707584 sectors
Units: sectors of 1 * 512 = 512 bytes
Sector size (logical/physical): 512 bytes / 512 bytes
I/O size (minimum/optimal): 512 bytes / 512 bytes
Disklabel type: dos
Disk identifier: 0x03515651

Device     Boot     Start       End   Sectors  Size Id Type
/dev/sda1  *         2048 204802553 204800506 97.7G a9 NetBSD
/dev/sda2       204804096 414519295 209715200  100G 83 Linux
/dev/sda3       414519296 624234495 209715200  100G 83 Linux
/dev/sda4       624234496 833949695 209715200  100G 83 Linux
